<?xml version="1.0" encoding="UTF-8"?>
<svg width="234px" height="153px" viewBox="0 0 234 153" version="1.1" xmlns="http://www.w3.org/2000/svg" xmlns:xlink="http://www.w3.org/1999/xlink">
    <!-- Generator: Sketch 46.2 (44496) - http://www.bohemiancoding.com/sketch -->
    <title>icnMoney</title>
    <desc>Created with Sketch.</desc>
    <defs>
        <rect id="path-1" x="6.17674419" y="6.11320755" width="159.823256" height="74.8867925" rx="3.08"></rect>
        <rect id="path-2" x="0" y="0" width="159.823256" height="74.8867925" rx="3.08"></rect>
    </defs>
    <g id="Desktop" stroke="none" stroke-width="1" fill="none" fill-rule="evenodd">
        <g id="2PD_Our-Solution" transform="translate(-1332.000000, -1385.000000)">
            <g id="icnMoney" transform="translate(1332.000000, 1386.000000)">
                <g id="Group-2-Copy" transform="translate(144.000000, 91.000000)">
                    <g id="Group-14" transform="translate(0.000000, 10.188679)" stroke="#FA4814">
                        <ellipse id="Oval-4" stroke-width="0.63" fill="#FFE2DA" cx="14.5" cy="14.8787062" rx="14.5" ry="14.5552561"></ellipse>
                        <path d="M7.13492063,27.366694 L7.13492063,24.9572249" id="Line-6-Copy-5" stroke-opacity="0.484516531" stroke-width="0.5" stroke-linecap="square"></path>
                        <path d="M18.6428571,28.7354975 L18.6428571,26.4479081" id="Line-6-Copy" stroke-opacity="0.484516531" stroke-width="0.5" stroke-linecap="square"></path>
                        <path d="M27.3275132,21.2095888 L27.3275132,19.5407978" id="Line-6-Copy-8" stroke-opacity="0.484516531" stroke-width="0.5" stroke-linecap="square"></path>
                    </g>
                    <g id="Group-14" transform="translate(0.000000, 7.547170)" stroke="#FA4814">
                        <ellipse id="Oval-4" stroke-width="0.63" fill="#FFE2DA" cx="14.5" cy="14.8787062" rx="14.5" ry="14.5552561"></ellipse>
                        <path d="M7.13492063,27.366694 L7.13492063,24.9572249" id="Line-6-Copy-5" stroke-opacity="0.484516531" stroke-width="0.5" stroke-linecap="square"></path>
                        <path d="M18.6428571,28.7354975 L18.6428571,26.4479081" id="Line-6-Copy" stroke-opacity="0.484516531" stroke-width="0.5" stroke-linecap="square"></path>
                        <path d="M27.3275132,21.2095888 L27.3275132,19.5407978" id="Line-6-Copy-8" stroke-opacity="0.484516531" stroke-width="0.5" stroke-linecap="square"></path>
                    </g>
                    <g id="Group-14" transform="translate(0.000000, 4.905660)" stroke="#FA4814">
                        <ellipse id="Oval-4" stroke-width="0.63" fill="#FFE2DA" cx="14.5" cy="14.8787062" rx="14.5" ry="14.5552561"></ellipse>
                        <path d="M7.13492063,27.366694 L7.13492063,24.9572249" id="Line-6-Copy-5" stroke-opacity="0.484516531" stroke-width="0.5" stroke-linecap="square"></path>
                        <path d="M18.6428571,28.7354975 L18.6428571,26.4479081" id="Line-6-Copy" stroke-opacity="0.484516531" stroke-width="0.5" stroke-linecap="square"></path>
                        <path d="M27.3275132,21.2095888 L27.3275132,19.5407978" id="Line-6-Copy-8" stroke-opacity="0.484516531" stroke-width="0.5" stroke-linecap="square"></path>
                    </g>
                    <g id="Group-14" transform="translate(0.000000, 2.264151)" stroke="#FA4814">
                        <ellipse id="Oval-4" stroke-width="0.63" fill="#FFE2DA" cx="14.5" cy="14.8787062" rx="14.5" ry="14.5552561"></ellipse>
                        <path d="M7.13492063,27.366694 L7.13492063,24.9572249" id="Line-6-Copy-5" stroke-opacity="0.484516531" stroke-width="0.5" stroke-linecap="square"></path>
                        <path d="M18.6428571,28.7354975 L18.6428571,26.4479081" id="Line-6-Copy" stroke-opacity="0.484516531" stroke-width="0.5" stroke-linecap="square"></path>
                        <path d="M27.3275132,21.2095888 L27.3275132,19.5407978" id="Line-6-Copy-8" stroke-opacity="0.484516531" stroke-width="0.5" stroke-linecap="square"></path>
                    </g>
                    <ellipse id="Oval-4-Copy" stroke="#FA4814" stroke-width="0.63" fill="#FFFFFF" cx="14.5" cy="14.4708778" rx="14.5" ry="14.4708778"></ellipse>
                    <ellipse id="Oval-5" stroke="#FA4814" stroke-width="0.6" fill-opacity="0.0842957428" fill="#FA4814" cx="14.5" cy="14.4708778" rx="9.43650794" ry="9.41755537"></ellipse>
                    <path d="M13.9296909,18.7217862 C13.4285079,18.6886786 12.9829635,18.5570896 12.5930476,18.3270165 C12.1375905,18.0582703 11.7851588,17.68779 11.5357418,17.2155645 C11.2863248,16.743339 11.1507741,16.2077742 11.1290857,15.608854 C11.1218562,15.3785001 11.1182416,15.0368136 11.1182416,14.5837843 C11.1182416,14.130755 11.1218562,13.7890685 11.1290857,13.5587146 C11.1507741,12.9597944 11.2863248,12.4242297 11.5357418,11.9520042 C11.7851588,11.4797787 12.1375905,11.1092984 12.5930476,10.8405522 C12.9829635,10.610479 13.4285079,10.47889 13.9296909,10.4457824 L13.9296909,9.58427652 L14.7329622,9.58427652 L14.7329622,10.4708345 C15.169659,10.5270214 15.549805,10.6540993 15.8734066,10.8520698 C16.3252489,11.1284945 16.6596072,11.4682614 16.8764915,11.8713807 C17.0933759,12.2745 17.2090458,12.6641762 17.2235047,13.0404209 C17.2235047,13.1095271 17.2000093,13.1690343 17.1530177,13.2189443 C17.1060261,13.2688543 17.0499984,13.2938089 16.9849332,13.2938089 L16.4861017,13.2938089 C16.4210364,13.2938089 16.3613941,13.2707739 16.307173,13.2247031 C16.252952,13.1786323 16.2186124,13.1172055 16.2041535,13.0404209 C16.1029408,12.5797131 15.9005185,12.203474 15.5968804,11.9116924 C15.2932424,11.6199108 14.8233334,11.4740222 14.1871394,11.4740222 C13.5581748,11.4740222 13.0683851,11.6679005 12.7177554,12.0556629 C12.3671258,12.4434253 12.1809695,12.9636334 12.1592811,13.6163028 C12.1520516,13.8466567 12.1484369,14.1691473 12.1484369,14.5837843 C12.1484369,14.9984213 12.1520516,15.320912 12.1592811,15.5512659 C12.1809695,16.2039352 12.3671258,16.7241433 12.7177554,17.1119057 C13.0683851,17.4996681 13.5581748,17.6935464 14.1871394,17.6935464 C14.8233334,17.6935464 15.2932424,17.5476578 15.5968804,17.2558762 C15.9005185,16.9640946 16.1029408,16.5878555 16.2041535,16.1271477 C16.2186124,16.0503631 16.252952,15.9889363 16.307173,15.9428655 C16.3613941,15.8967947 16.4210364,15.8737597 16.4861017,15.8737597 L16.9849332,15.8737597 C17.0499984,15.8737597 17.1060261,15.8987143 17.1530177,15.9486243 C17.2000093,15.9985344 17.2235047,16.0580416 17.2235047,16.1271477 C17.2090458,16.5033924 17.0933759,16.8930686 16.8764915,17.2961879 C16.6596072,17.6993072 16.3252489,18.0390742 15.8734066,18.3154988 C15.549805,18.5134693 15.169659,18.6405472 14.7329622,18.6967342 L14.7329622,19.3955973 L13.9296909,19.3955973 L13.9296909,18.7217862 Z" id="Combined-Shape" fill="#FA4814" transform="translate(14.170873, 14.489937) rotate(-51.000000) translate(-14.170873, -14.489937) "></path>
                </g>
                <g id="Group-2-Copy" transform="translate(109.000000, 112.000000)">
                    <g id="Group-14" transform="translate(0.000000, 10.188679)" stroke="#FA4814">
                        <ellipse id="Oval-4" stroke-width="0.63" fill="#FFE2DA" cx="14.5" cy="14.8787062" rx="14.5" ry="14.5552561"></ellipse>
                        <path d="M7.13492063,27.366694 L7.13492063,24.9572249" id="Line-6-Copy-5" stroke-opacity="0.484516531" stroke-width="0.5" stroke-linecap="square"></path>
                        <path d="M18.6428571,28.7354975 L18.6428571,26.4479081" id="Line-6-Copy" stroke-opacity="0.484516531" stroke-width="0.5" stroke-linecap="square"></path>
                        <path d="M27.3275132,21.2095888 L27.3275132,19.5407978" id="Line-6-Copy-8" stroke-opacity="0.484516531" stroke-width="0.5" stroke-linecap="square"></path>
                    </g>
                    <g id="Group-14" transform="translate(0.000000, 7.547170)" stroke="#FA4814">
                        <ellipse id="Oval-4" stroke-width="0.63" fill="#FFE2DA" cx="14.5" cy="14.8787062" rx="14.5" ry="14.5552561"></ellipse>
                        <path d="M7.13492063,27.366694 L7.13492063,24.9572249" id="Line-6-Copy-5" stroke-opacity="0.484516531" stroke-width="0.5" stroke-linecap="square"></path>
                        <path d="M18.6428571,28.7354975 L18.6428571,26.4479081" id="Line-6-Copy" stroke-opacity="0.484516531" stroke-width="0.5" stroke-linecap="square"></path>
                        <path d="M27.3275132,21.2095888 L27.3275132,19.5407978" id="Line-6-Copy-8" stroke-opacity="0.484516531" stroke-width="0.5" stroke-linecap="square"></path>
                    </g>
                    <g id="Group-14" transform="translate(0.000000, 4.905660)" stroke="#FA4814">
                        <ellipse id="Oval-4" stroke-width="0.63" fill="#FFE2DA" cx="14.5" cy="14.8787062" rx="14.5" ry="14.5552561"></ellipse>
                        <path d="M7.13492063,27.366694 L7.13492063,24.9572249" id="Line-6-Copy-5" stroke-opacity="0.484516531" stroke-width="0.5" stroke-linecap="square"></path>
                        <path d="M18.6428571,28.7354975 L18.6428571,26.4479081" id="Line-6-Copy" stroke-opacity="0.484516531" stroke-width="0.5" stroke-linecap="square"></path>
                        <path d="M27.3275132,21.2095888 L27.3275132,19.5407978" id="Line-6-Copy-8" stroke-opacity="0.484516531" stroke-width="0.5" stroke-linecap="square"></path>
                    </g>
                    <g id="Group-14" transform="translate(0.000000, 2.264151)" stroke="#FA4814">
                        <ellipse id="Oval-4" stroke-width="0.63" fill="#FFE2DA" cx="14.5" cy="14.8787062" rx="14.5" ry="14.5552561"></ellipse>
                        <path d="M7.13492063,27.366694 L7.13492063,24.9572249" id="Line-6-Copy-5" stroke-opacity="0.484516531" stroke-width="0.5" stroke-linecap="square"></path>
                        <path d="M18.6428571,28.7354975 L18.6428571,26.4479081" id="Line-6-Copy" stroke-opacity="0.484516531" stroke-width="0.5" stroke-linecap="square"></path>
                        <path d="M27.3275132,21.2095888 L27.3275132,19.5407978" id="Line-6-Copy-8" stroke-opacity="0.484516531" stroke-width="0.5" stroke-linecap="square"></path>
                    </g>
                    <ellipse id="Oval-4-Copy" stroke="#FA4814" stroke-width="0.63" fill="#FFFFFF" cx="14.5" cy="14.4708778" rx="14.5" ry="14.4708778"></ellipse>
                    <ellipse id="Oval-5" stroke="#FA4814" stroke-width="0.6" fill-opacity="0.0842957428" fill="#FA4814" cx="14.5" cy="14.4708778" rx="9.43650794" ry="9.41755537"></ellipse>
                    <path d="M13.9296909,18.7217862 C13.4285079,18.6886786 12.9829635,18.5570896 12.5930476,18.3270165 C12.1375905,18.0582703 11.7851588,17.68779 11.5357418,17.2155645 C11.2863248,16.743339 11.1507741,16.2077742 11.1290857,15.608854 C11.1218562,15.3785001 11.1182416,15.0368136 11.1182416,14.5837843 C11.1182416,14.130755 11.1218562,13.7890685 11.1290857,13.5587146 C11.1507741,12.9597944 11.2863248,12.4242297 11.5357418,11.9520042 C11.7851588,11.4797787 12.1375905,11.1092984 12.5930476,10.8405522 C12.9829635,10.610479 13.4285079,10.47889 13.9296909,10.4457824 L13.9296909,9.58427652 L14.7329622,9.58427652 L14.7329622,10.4708345 C15.169659,10.5270214 15.549805,10.6540993 15.8734066,10.8520698 C16.3252489,11.1284945 16.6596072,11.4682614 16.8764915,11.8713807 C17.0933759,12.2745 17.2090458,12.6641762 17.2235047,13.0404209 C17.2235047,13.1095271 17.2000093,13.1690343 17.1530177,13.2189443 C17.1060261,13.2688543 17.0499984,13.2938089 16.9849332,13.2938089 L16.4861017,13.2938089 C16.4210364,13.2938089 16.3613941,13.2707739 16.307173,13.2247031 C16.252952,13.1786323 16.2186124,13.1172055 16.2041535,13.0404209 C16.1029408,12.5797131 15.9005185,12.203474 15.5968804,11.9116924 C15.2932424,11.6199108 14.8233334,11.4740222 14.1871394,11.4740222 C13.5581748,11.4740222 13.0683851,11.6679005 12.7177554,12.0556629 C12.3671258,12.4434253 12.1809695,12.9636334 12.1592811,13.6163028 C12.1520516,13.8466567 12.1484369,14.1691473 12.1484369,14.5837843 C12.1484369,14.9984213 12.1520516,15.320912 12.1592811,15.5512659 C12.1809695,16.2039352 12.3671258,16.7241433 12.7177554,17.1119057 C13.0683851,17.4996681 13.5581748,17.6935464 14.1871394,17.6935464 C14.8233334,17.6935464 15.2932424,17.5476578 15.5968804,17.2558762 C15.9005185,16.9640946 16.1029408,16.5878555 16.2041535,16.1271477 C16.2186124,16.0503631 16.252952,15.9889363 16.307173,15.9428655 C16.3613941,15.8967947 16.4210364,15.8737597 16.4861017,15.8737597 L16.9849332,15.8737597 C17.0499984,15.8737597 17.1060261,15.8987143 17.1530177,15.9486243 C17.2000093,15.9985344 17.2235047,16.0580416 17.2235047,16.1271477 C17.2090458,16.5033924 17.0933759,16.8930686 16.8764915,17.2961879 C16.6596072,17.6993072 16.3252489,18.0390742 15.8734066,18.3154988 C15.549805,18.5134693 15.169659,18.6405472 14.7329622,18.6967342 L14.7329622,19.3955973 L13.9296909,19.3955973 L13.9296909,18.7217862 Z" id="Combined-Shape" fill="#FA4814" transform="translate(14.170873, 14.489937) rotate(-51.000000) translate(-14.170873, -14.489937) "></path>
                </g>
                <g id="Group-2-Copy-5" transform="translate(188.000000, 0.000000)">
                    <g id="Group-14" transform="translate(0.000000, 6.500000)" stroke="#FA4814">
                        <ellipse id="Oval-4" stroke-width="0.84" fill="#FFE2DA" cx="19" cy="19.7142857" rx="19" ry="19.2857143"></ellipse>
                        <path d="M19.6031746,38.5714286 L19.6031746,36" id="Line-6" stroke-opacity="0.484516531" stroke-width="0.6" stroke-linecap="square"></path>
                        <path d="M14.1746032,37.9627329 L14.1746032,35.3913043" id="Line-6-Copy-4" stroke-opacity="0.484516531" stroke-width="0.6" stroke-linecap="square"></path>
                        <path d="M9.34920635,36.2608696 L9.34920635,33.068323" id="Line-6-Copy-5" stroke-opacity="0.484516531" stroke-width="0.6" stroke-linecap="square"></path>
                        <path d="M5.12698413,32.2111801 L5.12698413,29.6397516" id="Line-6-Copy-6" stroke-opacity="0.484516531" stroke-width="0.6" stroke-linecap="square"></path>
                        <path d="M2.11111111,27.5652174 L2.11111111,24.9937888" id="Line-6-Copy-7" stroke-opacity="0.484516531" stroke-width="0.6" stroke-linecap="square"></path>
                        <path d="M24.4285714,38.0745342 L24.4285714,35.0434783" id="Line-6-Copy" stroke-opacity="0.484516531" stroke-width="0.6" stroke-linecap="square"></path>
                        <path d="M28.6507937,35.7515528 L28.6507937,33.1801242" id="Line-6-Copy-2" stroke-opacity="0.484516531" stroke-width="0.6" stroke-linecap="square"></path>
                        <path d="M32.2698413,32.931677 L32.2698413,30.3602484" id="Line-6-Copy-3" stroke-opacity="0.484516531" stroke-width="0.6" stroke-linecap="square"></path>
                        <path d="M35.8084656,28.1027052 L35.8084656,25.8915571" id="Line-6-Copy-8" stroke-opacity="0.484516531" stroke-width="0.6" stroke-linecap="square"></path>
                    </g>
                    <g id="Group-14" transform="translate(0.000000, 3.000000)" stroke="#FA4814">
                        <ellipse id="Oval-4" stroke-width="0.84" fill="#FFE2DA" cx="19" cy="19.7142857" rx="19" ry="19.2857143"></ellipse>
                        <path d="M19.6031746,38.5714286 L19.6031746,36" id="Line-6" stroke-opacity="0.484516531" stroke-width="0.6" stroke-linecap="square"></path>
                        <path d="M14.1746032,37.9627329 L14.1746032,35.3913043" id="Line-6-Copy-4" stroke-opacity="0.484516531" stroke-width="0.6" stroke-linecap="square"></path>
                        <path d="M9.34920635,36.2608696 L9.34920635,33.068323" id="Line-6-Copy-5" stroke-opacity="0.484516531" stroke-width="0.6" stroke-linecap="square"></path>
                        <path d="M5.12698413,32.2111801 L5.12698413,29.6397516" id="Line-6-Copy-6" stroke-opacity="0.484516531" stroke-width="0.6" stroke-linecap="square"></path>
                        <path d="M2.11111111,27.5652174 L2.11111111,24.9937888" id="Line-6-Copy-7" stroke-opacity="0.484516531" stroke-width="0.6" stroke-linecap="square"></path>
                        <path d="M24.4285714,38.0745342 L24.4285714,35.0434783" id="Line-6-Copy" stroke-opacity="0.484516531" stroke-width="0.6" stroke-linecap="square"></path>
                        <path d="M28.6507937,35.7515528 L28.6507937,33.1801242" id="Line-6-Copy-2" stroke-opacity="0.484516531" stroke-width="0.6" stroke-linecap="square"></path>
                        <path d="M32.2698413,32.931677 L32.2698413,30.3602484" id="Line-6-Copy-3" stroke-opacity="0.484516531" stroke-width="0.6" stroke-linecap="square"></path>
                        <path d="M35.8084656,28.1027052 L35.8084656,25.8915571" id="Line-6-Copy-8" stroke-opacity="0.484516531" stroke-width="0.6" stroke-linecap="square"></path>
                    </g>
                    <ellipse id="Oval-4-Copy" stroke="#FA4814" stroke-width="0.84" fill="#FFFFFF" cx="19" cy="19.173913" rx="19" ry="19.173913"></ellipse>
                    <ellipse id="Oval-5" stroke="#FA4814" stroke-width="0.8" fill-opacity="0.0842957428" fill="#FA4814" cx="19" cy="19.173913" rx="12.3650794" ry="12.4782609"></ellipse>
                    <path d="M18.6839682,25.1072003 C18.0272456,25.0633328 17.4434287,24.8889773 16.9325044,24.5841304 C16.3356986,24.2280417 15.8738915,23.7371553 15.5470693,23.1114565 C15.220247,22.4857577 15.0426289,21.7761344 15.0142096,20.9825652 C15.0047365,20.6773463 15,20.2246117 15,19.6243478 C15,19.024084 15.0047365,18.5713494 15.0142096,18.2661304 C15.0426289,17.4725612 15.220247,16.7629379 15.5470693,16.1372391 C15.8738915,15.5115403 16.3356986,15.020654 16.9325044,14.6645652 C17.4434287,14.3597183 18.0272456,14.1853628 18.6839682,14.1414953 L18.6839682,13 L19.7365305,13 L19.7365305,14.1746893 C20.3087539,14.2491369 20.8068763,14.4175152 21.2309059,14.6798261 C21.8229751,15.0460888 22.2610998,15.4962799 22.5452931,16.030413 C22.8294863,16.5645461 22.9810538,17.0808671 23,17.5793913 C23,17.670957 22.9692129,17.749804 22.9076377,17.8159348 C22.8460625,17.8820655 22.772647,17.9151304 22.687389,17.9151304 L22.0337478,17.9151304 C21.9484898,17.9151304 21.8703378,17.884609 21.7992895,17.8235652 C21.7282412,17.7625214 21.6832446,17.6811309 21.6642984,17.5793913 C21.5316749,16.9689535 21.2664318,16.4704367 20.8685613,16.0838261 C20.4706907,15.6972155 19.8549479,15.503913 19.0213144,15.503913 C18.197154,15.503913 17.5553605,15.7608018 17.0959147,16.274587 C16.636469,16.7883721 16.3925401,17.4776479 16.3641208,18.3424348 C16.3546477,18.6476537 16.3499112,19.0749538 16.3499112,19.6243478 C16.3499112,20.1737419 16.3546477,20.601042 16.3641208,20.9062609 C16.3925401,21.7710478 16.636469,22.4603235 17.0959147,22.9741087 C17.5553605,23.4878939 18.197154,23.7447826 19.0213144,23.7447826 C19.8549479,23.7447826 20.4706907,23.5514802 20.8685613,23.1648696 C21.2664318,22.7782589 21.5316749,22.2797422 21.6642984,21.6693043 C21.6832446,21.5675647 21.7282412,21.4861742 21.7992895,21.4251304 C21.8703378,21.3640867 21.9484898,21.3335652 22.0337478,21.3335652 L22.687389,21.3335652 C22.772647,21.3335652 22.8460625,21.3666301 22.9076377,21.4327609 C22.9692129,21.4988916 23,21.5777387 23,21.6693043 C22.9810538,22.1678286 22.8294863,22.6841495 22.5452931,23.2182826 C22.2610998,23.7524157 21.8229751,24.2026069 21.2309059,24.5688696 C20.8068763,24.8311804 20.3087539,24.9995587 19.7365305,25.0740064 L19.7365305,26 L18.6839682,26 L18.6839682,25.1072003 Z" id="Combined-Shape" fill="#FA4814" transform="translate(19.000000, 19.500000) rotate(-51.000000) translate(-19.000000, -19.500000) "></path>
                </g>
                <g id="Page-1-Copy-2" transform="translate(207.500000, 102.000000) rotate(-270.000000) translate(-207.500000, -102.000000) translate(157.500000, 75.500000)">
                    <polygon id="Fill-1" fill-opacity="0.124915082" fill="#FA4814" points="10.7505618 53 99.3730337 53 99.3730337 5.76979149 10.7505618 5.76979149"></polygon>
                    <g id="Group-12" transform="translate(0.000000, 0.013089)">
                        <polygon id="Stroke-2" stroke="#FA4814" stroke-width="1.12" points="0.561797753 49.6170213 96.0674157 49.6170213 96.0674157 0.678851064 0.561797753 0.678851064"></polygon>
                        <path d="M3.70876404,42.7601745 L3.70876404,7.53547234 C5.94247191,7.53547234 7.75370787,5.71768511 7.75370787,3.47589787 L88.8750562,3.47589787 C88.8750562,5.71768511 90.6862921,7.53547234 92.92,7.53547234 L92.92,42.7601745 C90.6862921,42.7601745 88.8750562,44.5779617 88.8750562,46.8197489 L7.75370787,46.8197489 C7.75370787,44.5779617 5.94247191,42.7601745 3.70876404,42.7601745 Z" id="Stroke-4" stroke="#FD9779" stroke-width="1.12"></path>
                        <path d="M50.3368539,20.8584319 C50.7548315,21.1279426 51.0761798,21.4357936 51.3008989,21.7774745 C51.525618,22.1214106 51.6469663,22.4360277 51.6660674,22.7247085 C51.6739326,22.8070277 51.6469663,22.8769426 51.5840449,22.9355809 C51.5211236,22.9942191 51.4492135,23.0235383 51.3683146,23.0235383 L50.8155056,23.0235383 C50.7076404,23.0235383 50.6267416,23.0021128 50.572809,22.961517 C50.5188764,22.9220489 50.4604494,22.8431128 50.3975281,22.7247085 C50.2537079,22.4461766 50.0042697,22.1710277 49.6492135,21.9003894 C49.2941573,21.6297511 48.8244944,21.4933043 48.2402247,21.4933043 C47.7008989,21.4933043 47.2447191,21.6162191 46.8716854,21.8597936 C46.4986517,22.1033681 46.3121348,22.4506872 46.3121348,22.9017511 C46.3121348,23.2084745 46.4042697,23.4588149 46.5885393,23.6527723 C46.772809,23.8456021 47.0514607,24.0136234 47.4244944,24.1534532 C47.7975281,24.293283 48.361573,24.4613043 49.1166292,24.6609 C50.1413483,24.9304106 50.867191,25.2619426 51.2952809,25.6554957 C51.7211236,26.0479213 51.9346067,26.5813043 51.9346067,27.2590277 C51.9346067,27.9987723 51.6582022,28.6167298 51.1065169,29.1117723 C50.5525843,29.6090702 49.8132584,29.9022617 48.8874157,29.9924745 L48.8874157,30.8720489 C48.8874157,30.971283 48.8514607,31.0569851 48.7795506,31.1280277 C48.7076404,31.2013255 48.6222472,31.2374106 48.5233708,31.2374106 L47.9716854,31.2374106 C47.8716854,31.2374106 47.7862921,31.2013255 47.714382,31.1280277 C47.6424719,31.0569851 47.6065169,30.971283 47.6065169,30.8720489 L47.6065169,29.964283 C47.0582022,29.8842191 46.5638202,29.7128149 46.1233708,29.4511979 C45.6829213,29.1895809 45.3368539,28.8851128 45.0851685,28.5377936 C44.8346067,28.1904745 44.7031461,27.844283 44.6952809,27.5026021 C44.6952809,27.420283 44.7233708,27.3514957 44.7817978,27.2928574 C44.8402247,27.2330915 44.9098876,27.2049 44.9907865,27.2049 L45.5435955,27.2049 C45.6424719,27.2049 45.7244944,27.2251979 45.7862921,27.2657936 C45.8492135,27.3063894 45.908764,27.3853255 45.961573,27.5026021 C46.1053933,27.8273681 46.3683146,28.1239426 46.7514607,28.3957085 C47.1323596,28.6663468 47.6514607,28.801666 48.3076404,28.801666 C48.9638202,28.801666 49.5188764,28.6595809 49.972809,28.3754106 C50.4267416,28.0912404 50.6537079,27.7191128 50.6537079,27.2590277 C50.6537079,26.9613255 50.5346067,26.7098574 50.2964045,26.5080064 C50.0582022,26.3050277 49.7323596,26.1336234 49.3188764,25.9937936 C48.9065169,25.8539638 48.2997753,25.6791766 47.4997753,25.4728149 C46.6267416,25.247283 45.9975281,24.9202617 45.6110112,24.4917511 C45.2244944,24.0632404 45.031236,23.5332404 45.031236,22.9017511 C45.031236,22.4856447 45.1278652,22.0966021 45.3211236,21.7301128 C45.514382,21.3647511 45.8042697,21.0569 46.1919101,20.8043043 C46.5773034,20.5517085 47.0492135,20.3893255 47.6065169,20.3171553 L47.6065169,19.4240489 C47.6065169,19.3248149 47.6424719,19.2379851 47.714382,19.1669426 C47.7862921,19.0947723 47.8716854,19.0575596 47.9716854,19.0575596 L48.5233708,19.0575596 C48.6222472,19.0575596 48.7076404,19.0947723 48.7795506,19.1669426 C48.8514607,19.2379851 48.8874157,19.3248149 48.8874157,19.4240489 L48.8874157,20.3295596 C49.4357303,20.4118787 49.9188764,20.5877936 50.3368539,20.8584319" id="Fill-5" fill="#FD9779"></path>
                        <path d="M48.3146067,43.1115532 C38.4449438,43.1115532 30.4157303,35.0532979 30.4157303,25.1479362 C30.4157303,15.2425745 38.4449438,7.18431915 48.3146067,7.18431915 C58.1842697,7.18431915 66.2134831,15.2425745 66.2134831,25.1479362 C66.2134831,35.0532979 58.1842697,43.1115532 48.3146067,43.1115532 Z" id="Stroke-6" stroke-opacity="0.506736866" stroke="#FA4814" stroke-width="1.12"></path>
                        <path d="M62.2575281,25.1477106 C62.2575281,32.8766894 56.0148315,39.1408383 48.3148315,39.1408383 C40.6137079,39.1408383 34.3721348,32.8766894 34.3721348,25.1477106 C34.3721348,17.4187319 40.6137079,11.154583 48.3148315,11.154583 C56.0148315,11.154583 62.2575281,17.4187319 62.2575281,25.1477106 Z" id="Stroke-7" stroke-opacity="0.506736866" stroke="#FA4814" stroke-width="1.12"></path>
                        <path d="M15.2969663,14.7938787 L33.558764,14.7938787" id="Stroke-8" stroke="#FD9779" stroke-width="1.12"></path>
                        <path d="M15.2969663,34.7454468 L33.558764,34.7454468" id="Stroke-9" stroke="#FD9779" stroke-width="1.12"></path>
                        <path d="M63.0826966,14.7938787 L81.3444944,14.7938787" id="Stroke-10" stroke="#FD9779" stroke-width="1.12"></path>
                        <path d="M63.4688764,34.7454468 L81.7295506,34.7454468" id="Stroke-11" stroke="#FD9779" stroke-width="1.12"></path>
                    </g>
                </g>
                <g id="Page-1-Copy-4" transform="translate(0.000000, 96.000000)">
                    <polygon id="Fill-1" fill-opacity="0.124915082" fill="#FA4814" points="7 55.9381702 102 55.9381702 102 6.2490184 99.2546643 6.2490184 99.2546643 51.6301106 7 51.6301106"></polygon>
                    <polygon id="Stroke-2" stroke="#FA4814" stroke-width="1.12" points="3.56179775 52.6301106 99.0674157 52.6301106 99.0674157 3.69194043 3.56179775 3.69194043"></polygon>
                    <polygon id="Stroke-2" stroke="#FA4814" stroke-width="1.12" points="0.561797753 49.6301106 96.0674157 49.6301106 96.0674157 0.691940426 0.561797753 0.691940426"></polygon>
                    <path d="M3.70876404,42.7732638 L3.70876404,7.5485617 C5.94247191,7.5485617 7.75370787,5.73077447 7.75370787,3.48898723 L88.8750562,3.48898723 C88.8750562,5.73077447 90.6862921,7.5485617 92.92,7.5485617 L92.92,42.7732638 C90.6862921,42.7732638 88.8750562,44.5910511 88.8750562,46.8328383 L7.75370787,46.8328383 C7.75370787,44.5910511 5.94247191,42.7732638 3.70876404,42.7732638 Z" id="Stroke-4" stroke="#FD9779" stroke-width="1.12"></path>
                    <path d="M50.3368539,20.8715213 C50.7548315,21.1410319 51.0761798,21.448883 51.3008989,21.7905638 C51.525618,22.1345 51.6469663,22.449117 51.6660674,22.7377979 C51.6739326,22.820117 51.6469663,22.8900319 51.5840449,22.9486702 C51.5211236,23.0073085 51.4492135,23.0366277 51.3683146,23.0366277 L50.8155056,23.0366277 C50.7076404,23.0366277 50.6267416,23.0152021 50.572809,22.9746064 C50.5188764,22.9351383 50.4604494,22.8562021 50.3975281,22.7377979 C50.2537079,22.459266 50.0042697,22.184117 49.6492135,21.9134787 C49.2941573,21.6428404 48.8244944,21.5063936 48.2402247,21.5063936 C47.7008989,21.5063936 47.2447191,21.6293085 46.8716854,21.872883 C46.4986517,22.1164574 46.3121348,22.4637766 46.3121348,22.9148404 C46.3121348,23.2215638 46.4042697,23.4719043 46.5885393,23.6658617 C46.772809,23.8586915 47.0514607,24.0267128 47.4244944,24.1665426 C47.7975281,24.3063723 48.361573,24.4743936 49.1166292,24.6739894 C50.1413483,24.9435 50.867191,25.2750319 51.2952809,25.6685851 C51.7211236,26.0610106 51.9346067,26.5943936 51.9346067,27.272117 C51.9346067,28.0118617 51.6582022,28.6298191 51.1065169,29.1248617 C50.5525843,29.6221596 49.8132584,29.9153511 48.8874157,30.0055638 L48.8874157,30.8851383 C48.8874157,30.9843723 48.8514607,31.0700745 48.7795506,31.141117 C48.7076404,31.2144149 48.6222472,31.2505 48.5233708,31.2505 L47.9716854,31.2505 C47.8716854,31.2505 47.7862921,31.2144149 47.714382,31.141117 C47.6424719,31.0700745 47.6065169,30.9843723 47.6065169,30.8851383 L47.6065169,29.9773723 C47.0582022,29.8973085 46.5638202,29.7259043 46.1233708,29.4642872 C45.6829213,29.2026702 45.3368539,28.8982021 45.0851685,28.550883 C44.8346067,28.2035638 44.7031461,27.8573723 44.6952809,27.5156915 C44.6952809,27.4333723 44.7233708,27.3645851 44.7817978,27.3059468 C44.8402247,27.2461809 44.9098876,27.2179894 44.9907865,27.2179894 L45.5435955,27.2179894 C45.6424719,27.2179894 45.7244944,27.2382872 45.7862921,27.278883 C45.8492135,27.3194787 45.908764,27.3984149 45.961573,27.5156915 C46.1053933,27.8404574 46.3683146,28.1370319 46.7514607,28.4087979 C47.1323596,28.6794362 47.6514607,28.8147553 48.3076404,28.8147553 C48.9638202,28.8147553 49.5188764,28.6726702 49.972809,28.3885 C50.4267416,28.1043298 50.6537079,27.7322021 50.6537079,27.272117 C50.6537079,26.9744149 50.5346067,26.7229468 50.2964045,26.5210957 C50.0582022,26.318117 49.7323596,26.1467128 49.3188764,26.006883 C48.9065169,25.8670532 48.2997753,25.692266 47.4997753,25.4859043 C46.6267416,25.2603723 45.9975281,24.9333511 45.6110112,24.5048404 C45.2244944,24.0763298 45.031236,23.5463298 45.031236,22.9148404 C45.031236,22.498734 45.1278652,22.1096915 45.3211236,21.7432021 C45.514382,21.3778404 45.8042697,21.0699894 46.1919101,20.8173936 C46.5773034,20.5647979 47.0492135,20.4024149 47.6065169,20.3302447 L47.6065169,19.4371383 C47.6065169,19.3379043 47.6424719,19.2510745 47.714382,19.1800319 C47.7862921,19.1078617 47.8716854,19.0706489 47.9716854,19.0706489 L48.5233708,19.0706489 C48.6222472,19.0706489 48.7076404,19.1078617 48.7795506,19.1800319 C48.8514607,19.2510745 48.8874157,19.3379043 48.8874157,19.4371383 L48.8874157,20.3426489 C49.4357303,20.4249681 49.9188764,20.600883 50.3368539,20.8715213" id="Fill-5" fill="#FD9779"></path>
                    <path d="M48.3146067,43.1246426 C38.4449438,43.1246426 30.4157303,35.0663872 30.4157303,25.1610255 C30.4157303,15.2556638 38.4449438,7.19740851 48.3146067,7.19740851 C58.1842697,7.19740851 66.2134831,15.2556638 66.2134831,25.1610255 C66.2134831,35.0663872 58.1842697,43.1246426 48.3146067,43.1246426 Z" id="Stroke-6" stroke-opacity="0.506736866" stroke="#FA4814" stroke-width="1.12"></path>
                    <path d="M62.2575281,25.1608 C62.2575281,32.8897787 56.0148315,39.1539277 48.3148315,39.1539277 C40.6137079,39.1539277 34.3721348,32.8897787 34.3721348,25.1608 C34.3721348,17.4318213 40.6137079,11.1676723 48.3148315,11.1676723 C56.0148315,11.1676723 62.2575281,17.4318213 62.2575281,25.1608 Z" id="Stroke-7" stroke-opacity="0.506736866" stroke="#FA4814" stroke-width="1.12"></path>
                    <path d="M15.2969663,14.8069681 L33.558764,14.8069681" id="Stroke-8" stroke="#FD9779" stroke-width="1.12"></path>
                    <path d="M15.2969663,34.7585362 L33.558764,34.7585362" id="Stroke-9" stroke="#FD9779" stroke-width="1.12"></path>
                    <path d="M63.0826966,14.8069681 L81.3444944,14.8069681" id="Stroke-10" stroke="#FD9779" stroke-width="1.12"></path>
                    <path d="M63.4688764,34.7585362 L81.7295506,34.7585362" id="Stroke-11" stroke="#FD9779" stroke-width="1.12"></path>
                </g>
                <g id="Group-13" transform="translate(0.000000, 2.000000)">
                    <g id="Group-4">
                        <g id="Rectangle-12">
                            <use fill="#FFFFFF" fill-rule="evenodd" xlink:href="#path-1"></use>
                            <rect stroke="#BEBEBE" stroke-width="1.54" x="6.94674419" y="6.88320755" width="158.283256" height="73.3467925" rx="3.08"></rect>
                        </g>
                        <g id="Rectangle-12">
                            <use fill="#FFFFFF" fill-rule="evenodd" xlink:href="#path-2"></use>
                            <rect stroke="#FA4814" stroke-width="1.54" x="0.77" y="0.77" width="158.283256" height="73.3467925" rx="3.08"></rect>
                        </g>
                        <path d="M1.42423748,24.6527696 L24.1221434,1.25780899" id="Line-2" stroke="#FA4814" stroke-width="1.54" stroke-linecap="square"></path>
                        <rect id="Rectangle-13" stroke="#FFA287" stroke-width="0.77" x="17.3710465" y="21.7812264" width="28.2439535" height="6.10735849"></rect>
                        <rect id="Rectangle-13-Copy" fill="#FFA287" x="16.9860465" y="33.6226415" width="88.0186047" height="4"></rect>
                        <rect id="Rectangle-13-Copy-2" fill="#FFA287" x="16.9860465" y="40.0849057" width="52.5023256" height="4"></rect>
                        <g id="Group" transform="translate(16.986047, 58.075472)" stroke="#FFA287" stroke-width="0.77" stroke-linecap="square">
                            <path d="M0.386046512,0.382075472 L5.01860465,4.96698113" id="Line-3"></path>
                            <path d="M0.386046512,0.382075472 L5.01860465,4.96698113" id="Line-3-Copy" transform="translate(2.702326, 2.674528) scale(-1, 1) translate(-2.702326, -2.674528) "></path>
                        </g>
                        <path d="M16.6,66.8632075 L107.720062,66.8632075" id="Line-4" stroke="#FFA287" stroke-width="0.77" stroke-linecap="square"></path>
                        <path d="M103.803618,9.93396226 L115.490969,9.93396226" id="Line-5" stroke="#FFA287" stroke-width="1.54" stroke-linecap="square"></path>
                        <path d="M120.789664,9.93396226 L132.477016,9.93396226" id="Line-5-Copy" stroke="#FFA287" stroke-width="1.54" stroke-linecap="square"></path>
                        <path d="M137.775711,9.93396226 L149.463062,9.93396226" id="Line-5-Copy-2" stroke="#FFA287" stroke-width="1.54" stroke-linecap="square"></path>
                        <path d="M25.4795321,60.1397375 C29.8851133,57.165008 33.1640418,52.8650792 33.3403769,61.2819024 C33.5363525,70.6362096 37.6244925,65.3278519 39.1604089,60.1397375 C40.1457006,56.8115572 42.298875,53.6484225 44.1070671,54.4667412 C46.1870477,55.408061 46.4370945,59.5560429 46.4016097,61.8388357 C46.3634436,64.2941277 43.4994996,70.0508467 40.8011197,69.2629599 C38.1027398,68.4750731 39.7289176,66.8930543 40.8011197,65.0308902 C41.8733218,63.1687262 51.8704683,57.8188405 53.837065,60.1397375 C55.2746031,61.8362612 52.5729166,69.9375299 60.6996841,64.5945028 C63.1127405,63.0080139 62.6129647,64.6682395 65.4998924,64.5945028 C70.9543706,64.4551867 84.1052886,62.7956558 89.2564914,64.5945028" id="Path-3" stroke="#FA4814"></path>
                    </g>
                    <path d="M120.896648,36.1822222 C121.18529,36.3600009 121.4072,36.5614804 121.562384,36.7866667 C121.717568,37.011853 121.801366,37.2192583 121.81378,37.4088889 C121.819988,37.4622225 121.801366,37.508148 121.757914,37.5466667 C121.714463,37.5851854 121.664805,37.6044444 121.608939,37.6044444 L121.227188,37.6044444 C121.1527,37.6044444 121.096834,37.5911112 121.05959,37.5644444 C121.022346,37.5377776 120.981999,37.4859263 120.938547,37.4088889 C120.83923,37.2251843 120.666978,37.0444453 120.421788,36.8666667 C120.176597,36.688888 119.852268,36.6 119.44879,36.6 C119.076348,36.6 118.76133,36.6799992 118.503724,36.84 C118.246119,37.0000008 118.117318,37.2281467 118.117318,37.5244444 C118.117318,37.7259269 118.180943,37.8903697 118.308194,38.0177778 C118.435444,38.1451858 118.62787,38.2548144 118.885475,38.3466667 C119.14308,38.438519 119.532586,38.549629 120.054004,38.68 C120.761642,38.8577787 121.262879,39.0755543 121.557728,39.3333333 C121.852578,39.5911124 122,39.94222 122,40.3866667 C122,40.872595 121.809127,41.2785169 121.427374,41.6044444 C121.045622,41.930372 120.535075,42.1229627 119.895717,42.1822222 L119.895717,42.76 C119.895717,42.8251855 119.870888,42.8814812 119.821229,42.9288889 C119.77157,42.9762965 119.712601,43 119.64432,43 L119.26257,43 C119.194289,43 119.13532,42.9762965 119.085661,42.9288889 C119.036002,42.8814812 119.011173,42.8251855 119.011173,42.76 L119.011173,42.1644444 C118.632524,42.1111108 118.291125,41.9985194 117.986965,41.8266667 C117.682804,41.654814 117.443825,41.454816 117.270019,41.2266667 C117.096213,40.9985174 117.006207,40.771853 117,40.5466667 C117,40.4933331 117.020174,40.4474076 117.060521,40.4088889 C117.100869,40.3703702 117.148976,40.3511111 117.204842,40.3511111 L117.586592,40.3511111 C117.654873,40.3511111 117.710738,40.3644443 117.75419,40.3911111 C117.797641,40.4177779 117.837989,40.4696292 117.875233,40.5466667 C117.97455,40.7600011 118.156113,40.9555547 118.419926,41.1333333 C118.683738,41.311112 119.042208,41.4 119.495345,41.4 C119.948481,41.4 120.33178,41.3066676 120.645251,41.12 C120.958723,40.9333324 121.115456,40.6888904 121.115456,40.3866667 C121.115456,40.1911101 121.03321,40.0266673 120.868715,39.8933333 C120.70422,39.7599993 120.479207,39.6474079 120.193669,39.5555556 C119.90813,39.4637032 119.48914,39.3496303 118.936685,39.2133333 C118.334572,39.0651844 117.900063,38.8503718 117.633147,38.5688889 C117.366231,38.287406 117.232775,37.9392613 117.232775,37.5244444 C117.232775,37.2518505 117.299503,36.9955568 117.432961,36.7555556 C117.566419,36.5155544 117.766603,36.3125934 118.03352,36.1466667 C118.300436,35.9807399 118.626317,35.8740743 119.011173,35.8266667 L119.011173,35.24 C119.011173,35.1748145 119.036002,35.1185188 119.085661,35.0711111 C119.13532,35.0237035 119.194289,35 119.26257,35 L119.64432,35 C119.712601,35 119.77157,35.0237035 119.821229,35.0711111 C119.870888,35.1185188 119.895717,35.1748145 119.895717,35.24 L119.895717,35.8355556 C120.274366,35.8888892 120.608006,36.0044436 120.896648,36.1822222 Z" id="$" fill="#FFA287"></path>
                    <rect id="Rectangle-2" stroke="#FFA287" stroke-width="1.54" x="113.495581" y="31.2522198" width="36.2925581" height="16.3051868"></rect>
                </g>
            </g>
        </g>
    </g>
</svg>